processor.vcd
$date
	Fri Oct 13 18:11:58 2023
$end
$version
	QuestaSim Version 2021.1
$end
$timescale
	1ns
$end

$scope module tb_processor $end

$scope module dut $end
$var wire 1 ! clk $end
$var wire 1 " rst $end
$var reg 1 # rf_en $end
$var reg 1 $ sel_b $end
$var reg 32 % pc_out [31:0] $end
$var reg 32 & inst [31:0] $end
$var reg 5 ' rd [4:0] $end
$var reg 5 ( rs1 [4:0] $end
$var reg 5 ) rs2 [4:0] $end
$var reg 7 * opcode [6:0] $end
$var reg 3 + funct3 [2:0] $end
$var reg 7 , funct7 [6:0] $end
$var reg 32 - rdata1 [31:0] $end
$var reg 32 . rdata2 [31:0] $end
$var reg 32 / opr_b [31:0] $end
$var reg 12 0 imm [11:0] $end
$var reg 32 1 imm_val [31:0] $end
$var reg 32 2 wdata [31:0] $end
$var reg 4 3 aluop [3:0] $end

$scope module pc_i $end
$var wire 1 ! clk $end
$var wire 1 " rst $end
$var wire 1 4 pc_in [31] $end
$var wire 1 5 pc_in [30] $end
$var wire 1 6 pc_in [29] $end
$var wire 1 7 pc_in [28] $end
$var wire 1 8 pc_in [27] $end
$var wire 1 9 pc_in [26] $end
$var wire 1 : pc_in [25] $end
$var wire 1 ; pc_in [24] $end
$var wire 1 < pc_in [23] $end
$var wire 1 = pc_in [22] $end
$var wire 1 > pc_in [21] $end
$var wire 1 ? pc_in [20] $end
$var wire 1 @ pc_in [19] $end
$var wire 1 A pc_in [18] $end
$var wire 1 B pc_in [17] $end
$var wire 1 C pc_in [16] $end
$var wire 1 D pc_in [15] $end
$var wire 1 E pc_in [14] $end
$var wire 1 F pc_in [13] $end
$var wire 1 G pc_in [12] $end
$var wire 1 H pc_in [11] $end
$var wire 1 I pc_in [10] $end
$var wire 1 J pc_in [9] $end
$var wire 1 K pc_in [8] $end
$var wire 1 L pc_in [7] $end
$var wire 1 M pc_in [6] $end
$var wire 1 N pc_in [5] $end
$var wire 1 O pc_in [4] $end
$var wire 1 P pc_in [3] $end
$var wire 1 Q pc_in [2] $end
$var wire 1 R pc_in [1] $end
$var wire 1 S pc_in [0] $end
$var reg 32 T pc_out [31:0] $end
$upscope $end

$scope module inst_mem_i $end
$var wire 1 U addr [31] $end
$var wire 1 V addr [30] $end
$var wire 1 W addr [29] $end
$var wire 1 X addr [28] $end
$var wire 1 Y addr [27] $end
$var wire 1 Z addr [26] $end
$var wire 1 [ addr [25] $end
$var wire 1 \ addr [24] $end
$var wire 1 ] addr [23] $end
$var wire 1 ^ addr [22] $end
$var wire 1 _ addr [21] $end
$var wire 1 ` addr [20] $end
$var wire 1 a addr [19] $end
$var wire 1 b addr [18] $end
$var wire 1 c addr [17] $end
$var wire 1 d addr [16] $end
$var wire 1 e addr [15] $end
$var wire 1 f addr [14] $end
$var wire 1 g addr [13] $end
$var wire 1 h addr [12] $end
$var wire 1 i addr [11] $end
$var wire 1 j addr [10] $end
$var wire 1 k addr [9] $end
$var wire 1 l addr [8] $end
$var wire 1 m addr [7] $end
$var wire 1 n addr [6] $end
$var wire 1 o addr [5] $end
$var wire 1 p addr [4] $end
$var wire 1 q addr [3] $end
$var wire 1 r addr [2] $end
$var wire 1 s addr [1] $end
$var wire 1 t addr [0] $end
$var reg 32 u data [31:0] $end
$upscope $end

$scope module inst_dec_i $end
$var wire 1 v inst [31] $end
$var wire 1 w inst [30] $end
$var wire 1 x inst [29] $end
$var wire 1 y inst [28] $end
$var wire 1 z inst [27] $end
$var wire 1 { inst [26] $end
$var wire 1 | inst [25] $end
$var wire 1 } inst [24] $end
$var wire 1 ~ inst [23] $end
$var wire 1 !! inst [22] $end
$var wire 1 "! inst [21] $end
$var wire 1 #! inst [20] $end
$var wire 1 $! inst [19] $end
$var wire 1 %! inst [18] $end
$var wire 1 &! inst [17] $end
$var wire 1 '! inst [16] $end
$var wire 1 (! inst [15] $end
$var wire 1 )! inst [14] $end
$var wire 1 *! inst [13] $end
$var wire 1 +! inst [12] $end
$var wire 1 ,! inst [11] $end
$var wire 1 -! inst [10] $end
$var wire 1 .! inst [9] $end
$var wire 1 /! inst [8] $end
$var wire 1 0! inst [7] $end
$var wire 1 1! inst [6] $end
$var wire 1 2! inst [5] $end
$var wire 1 3! inst [4] $end
$var wire 1 4! inst [3] $end
$var wire 1 5! inst [2] $end
$var wire 1 6! inst [1] $end
$var wire 1 7! inst [0] $end
$var reg 5 8! rs1 [4:0] $end
$var reg 5 9! rs2 [4:0] $end
$var reg 5 :! rd [4:0] $end
$var reg 7 ;! opcode [6:0] $end
$var reg 3 <! funct3 [2:0] $end
$var reg 7 =! funct7 [6:0] $end
$var reg 12 >! imm [11:0] $end
$upscope $end

$scope module reg_file_i $end
$var wire 1 ! clk $end
$var wire 1 ?! rf_en $end
$var wire 1 @! rs1 [4] $end
$var wire 1 A! rs1 [3] $end
$var wire 1 B! rs1 [2] $end
$var wire 1 C! rs1 [1] $end
$var wire 1 D! rs1 [0] $end
$var wire 1 E! rs2 [4] $end
$var wire 1 F! rs2 [3] $end
$var wire 1 G! rs2 [2] $end
$var wire 1 H! rs2 [1] $end
$var wire 1 I! rs2 [0] $end
$var wire 1 J! rd [4] $end
$var wire 1 K! rd [3] $end
$var wire 1 L! rd [2] $end
$var wire 1 M! rd [1] $end
$var wire 1 N! rd [0] $end
$var wire 1 O! wdata [31] $end
$var wire 1 P! wdata [30] $end
$var wire 1 Q! wdata [29] $end
$var wire 1 R! wdata [28] $end
$var wire 1 S! wdata [27] $end
$var wire 1 T! wdata [26] $end
$var wire 1 U! wdata [25] $end
$var wire 1 V! wdata [24] $end
$var wire 1 W! wdata [23] $end
$var wire 1 X! wdata [22] $end
$var wire 1 Y! wdata [21] $end
$var wire 1 Z! wdata [20] $end
$var wire 1 [! wdata [19] $end
$var wire 1 \! wdata [18] $end
$var wire 1 ]! wdata [17] $end
$var wire 1 ^! wdata [16] $end
$var wire 1 _! wdata [15] $end
$var wire 1 `! wdata [14] $end
$var wire 1 a! wdata [13] $end
$var wire 1 b! wdata [12] $end
$var wire 1 c! wdata [11] $end
$var wire 1 d! wdata [10] $end
$var wire 1 e! wdata [9] $end
$var wire 1 f! wdata [8] $end
$var wire 1 g! wdata [7] $end
$var wire 1 h! wdata [6] $end
$var wire 1 i! wdata [5] $end
$var wire 1 j! wdata [4] $end
$var wire 1 k! wdata [3] $end
$var wire 1 l! wdata [2] $end
$var wire 1 m! wdata [1] $end
$var wire 1 n! wdata [0] $end
$var reg 32 o! rdata1 [31:0] $end
$var reg 32 p! rdata2 [31:0] $end
$upscope $end

$scope module imm_gen_i $end
$var wire 1 q! imm [11] $end
$var wire 1 r! imm [10] $end
$var wire 1 s! imm [9] $end
$var wire 1 t! imm [8] $end
$var wire 1 u! imm [7] $end
$var wire 1 v! imm [6] $end
$var wire 1 w! imm [5] $end
$var wire 1 x! imm [4] $end
$var wire 1 y! imm [3] $end
$var wire 1 z! imm [2] $end
$var wire 1 {! imm [1] $end
$var wire 1 |! imm [0] $end
$var wire 1 }! funct3 [2] $end
$var wire 1 ~! funct3 [1] $end
$var wire 1 !" funct3 [0] $end
$var reg 32 "" imm_val [31:0] $end
$upscope $end

$scope module mux_2x1_i $end
$var wire 1 #" rdata2 [31] $end
$var wire 1 $" rdata2 [30] $end
$var wire 1 %" rdata2 [29] $end
$var wire 1 &" rdata2 [28] $end
$var wire 1 '" rdata2 [27] $end
$var wire 1 (" rdata2 [26] $end
$var wire 1 )" rdata2 [25] $end
$var wire 1 *" rdata2 [24] $end
$var wire 1 +" rdata2 [23] $end
$var wire 1 ," rdata2 [22] $end
$var wire 1 -" rdata2 [21] $end
$var wire 1 ." rdata2 [20] $end
$var wire 1 /" rdata2 [19] $end
$var wire 1 0" rdata2 [18] $end
$var wire 1 1" rdata2 [17] $end
$var wire 1 2" rdata2 [16] $end
$var wire 1 3" rdata2 [15] $end
$var wire 1 4" rdata2 [14] $end
$var wire 1 5" rdata2 [13] $end
$var wire 1 6" rdata2 [12] $end
$var wire 1 7" rdata2 [11] $end
$var wire 1 8" rdata2 [10] $end
$var wire 1 9" rdata2 [9] $end
$var wire 1 :" rdata2 [8] $end
$var wire 1 ;" rdata2 [7] $end
$var wire 1 <" rdata2 [6] $end
$var wire 1 =" rdata2 [5] $end
$var wire 1 >" rdata2 [4] $end
$var wire 1 ?" rdata2 [3] $end
$var wire 1 @" rdata2 [2] $end
$var wire 1 A" rdata2 [1] $end
$var wire 1 B" rdata2 [0] $end
$var wire 1 C" imm_val [31] $end
$var wire 1 D" imm_val [30] $end
$var wire 1 E" imm_val [29] $end
$var wire 1 F" imm_val [28] $end
$var wire 1 G" imm_val [27] $end
$var wire 1 H" imm_val [26] $end
$var wire 1 I" imm_val [25] $end
$var wire 1 J" imm_val [24] $end
$var wire 1 K" imm_val [23] $end
$var wire 1 L" imm_val [22] $end
$var wire 1 M" imm_val [21] $end
$var wire 1 N" imm_val [20] $end
$var wire 1 O" imm_val [19] $end
$var wire 1 P" imm_val [18] $end
$var wire 1 Q" imm_val [17] $end
$var wire 1 R" imm_val [16] $end
$var wire 1 S" imm_val [15] $end
$var wire 1 T" imm_val [14] $end
$var wire 1 U" imm_val [13] $end
$var wire 1 V" imm_val [12] $end
$var wire 1 W" imm_val [11] $end
$var wire 1 X" imm_val [10] $end
$var wire 1 Y" imm_val [9] $end
$var wire 1 Z" imm_val [8] $end
$var wire 1 [" imm_val [7] $end
$var wire 1 \" imm_val [6] $end
$var wire 1 ]" imm_val [5] $end
$var wire 1 ^" imm_val [4] $end
$var wire 1 _" imm_val [3] $end
$var wire 1 `" imm_val [2] $end
$var wire 1 a" imm_val [1] $end
$var wire 1 b" imm_val [0] $end
$var wire 1 c" sel_b $end
$var reg 32 d" opr_b [31:0] $end
$upscope $end

$scope module controller_i $end
$var wire 1 e" opcode [6] $end
$var wire 1 f" opcode [5] $end
$var wire 1 g" opcode [4] $end
$var wire 1 h" opcode [3] $end
$var wire 1 i" opcode [2] $end
$var wire 1 j" opcode [1] $end
$var wire 1 k" opcode [0] $end
$var wire 1 l" funct7 [6] $end
$var wire 1 m" funct7 [5] $end
$var wire 1 n" funct7 [4] $end
$var wire 1 o" funct7 [3] $end
$var wire 1 p" funct7 [2] $end
$var wire 1 q" funct7 [1] $end
$var wire 1 r" funct7 [0] $end
$var wire 1 s" funct3 [2] $end
$var wire 1 t" funct3 [1] $end
$var wire 1 u" funct3 [0] $end
$var reg 4 v" aluop [3:0] $end
$var reg 1 w" rf_en $end
$var reg 1 x" sel_b $end
$upscope $end

$scope module alu_i $end
$var wire 1 y" aluop [3] $end
$var wire 1 z" aluop [2] $end
$var wire 1 {" aluop [1] $end
$var wire 1 |" aluop [0] $end
$var wire 1 }" opr_a [31] $end
$var wire 1 ~" opr_a [30] $end
$var wire 1 !# opr_a [29] $end
$var wire 1 "# opr_a [28] $end
$var wire 1 ## opr_a [27] $end
$var wire 1 $# opr_a [26] $end
$var wire 1 %# opr_a [25] $end
$var wire 1 &# opr_a [24] $end
$var wire 1 '# opr_a [23] $end
$var wire 1 (# opr_a [22] $end
$var wire 1 )# opr_a [21] $end
$var wire 1 *# opr_a [20] $end
$var wire 1 +# opr_a [19] $end
$var wire 1 ,# opr_a [18] $end
$var wire 1 -# opr_a [17] $end
$var wire 1 .# opr_a [16] $end
$var wire 1 /# opr_a [15] $end
$var wire 1 0# opr_a [14] $end
$var wire 1 1# opr_a [13] $end
$var wire 1 2# opr_a [12] $end
$var wire 1 3# opr_a [11] $end
$var wire 1 4# opr_a [10] $end
$var wire 1 5# opr_a [9] $end
$var wire 1 6# opr_a [8] $end
$var wire 1 7# opr_a [7] $end
$var wire 1 8# opr_a [6] $end
$var wire 1 9# opr_a [5] $end
$var wire 1 :# opr_a [4] $end
$var wire 1 ;# opr_a [3] $end
$var wire 1 <# opr_a [2] $end
$var wire 1 =# opr_a [1] $end
$var wire 1 ># opr_a [0] $end
$var wire 1 ?# opr_b [31] $end
$var wire 1 @# opr_b [30] $end
$var wire 1 A# opr_b [29] $end
$var wire 1 B# opr_b [28] $end
$var wire 1 C# opr_b [27] $end
$var wire 1 D# opr_b [26] $end
$var wire 1 E# opr_b [25] $end
$var wire 1 F# opr_b [24] $end
$var wire 1 G# opr_b [23] $end
$var wire 1 H# opr_b [22] $end
$var wire 1 I# opr_b [21] $end
$var wire 1 J# opr_b [20] $end
$var wire 1 K# opr_b [19] $end
$var wire 1 L# opr_b [18] $end
$var wire 1 M# opr_b [17] $end
$var wire 1 N# opr_b [16] $end
$var wire 1 O# opr_b [15] $end
$var wire 1 P# opr_b [14] $end
$var wire 1 Q# opr_b [13] $end
$var wire 1 R# opr_b [12] $end
$var wire 1 S# opr_b [11] $end
$var wire 1 T# opr_b [10] $end
$var wire 1 U# opr_b [9] $end
$var wire 1 V# opr_b [8] $end
$var wire 1 W# opr_b [7] $end
$var wire 1 X# opr_b [6] $end
$var wire 1 Y# opr_b [5] $end
$var wire 1 Z# opr_b [4] $end
$var wire 1 [# opr_b [3] $end
$var wire 1 \# opr_b [2] $end
$var wire 1 ]# opr_b [1] $end
$var wire 1 ^# opr_b [0] $end
$var reg 32 _# opr_res [31:0] $end
$upscope $end
$upscope $end
$upscope $end
$enddefinitions $end
#0
$dumpvars
0#
0$
bx %
bx &
bx '
bx (
bx )
bx *
bx +
bx ,
bx -
bx .
bx /
bx 0
bx 1
bx 2
bx 3
bx T
bx u
bx 8!
bx 9!
bx :!
bx ;!
bx <!
bx =!
bx >!
bx o!
bx p!
bx ""
bx d"
bx v"
0w"
0x"
bx _#
1"
0!
x^#
x]#
x\#
x[#
xZ#
xY#
xX#
xW#
xV#
xU#
xT#
xS#
xR#
xQ#
xP#
xO#
xN#
xM#
xL#
xK#
xJ#
xI#
xH#
xG#
xF#
xE#
xD#
xC#
xB#
xA#
x@#
x?#
x>#
x=#
x<#
x;#
x:#
x9#
x8#
x7#
x6#
x5#
x4#
x3#
x2#
x1#
x0#
x/#
x.#
x-#
x,#
x+#
x*#
x)#
x(#
x'#
x&#
x%#
x$#
x##
x"#
x!#
x~"
x}"
x|"
x{"
xz"
xy"
xu"
xt"
xs"
xr"
xq"
xp"
xo"
xn"
xm"
xl"
xk"
xj"
xi"
xh"
xg"
xf"
xe"
0c"
xb"
xa"
x`"
x_"
x^"
x]"
x\"
x["
xZ"
xY"
xX"
xW"
xV"
xU"
xT"
xS"
xR"
xQ"
xP"
xO"
xN"
xM"
xL"
xK"
xJ"
xI"
xH"
xG"
xF"
xE"
xD"
xC"
xB"
xA"
x@"
x?"
x>"
x="
x<"
x;"
x:"
x9"
x8"
x7"
x6"
x5"
x4"
x3"
x2"
x1"
x0"
x/"
x."
x-"
x,"
x+"
x*"
x)"
x("
x'"
x&"
x%"
x$"
x#"
x!"
x~!
x}!
x|!
x{!
xz!
xy!
xx!
xw!
xv!
xu!
xt!
xs!
xr!
xq!
xn!
xm!
xl!
xk!
xj!
xi!
xh!
xg!
xf!
xe!
xd!
xc!
xb!
xa!
x`!
x_!
x^!
x]!
x\!
x[!
xZ!
xY!
xX!
xW!
xV!
xU!
xT!
xS!
xR!
xQ!
xP!
xO!
xN!
xM!
xL!
xK!
xJ!
xI!
xH!
xG!
xF!
xE!
xD!
xC!
xB!
xA!
x@!
0?!
x7!
x6!
x5!
x4!
x3!
x2!
x1!
x0!
x/!
x.!
x-!
x,!
x+!
x*!
x)!
x(!
x'!
x&!
x%!
x$!
x#!
x"!
x!!
x~
x}
x|
x{
xz
xy
xx
xw
xv
xt
xs
xr
xq
xp
xo
xn
xm
xl
xk
xj
xi
xh
xg
xf
xe
xd
xc
xb
xa
x`
x_
x^
x]
x\
x[
xZ
xY
xX
xW
xV
xU
xS
xR
xQ
xP
xO
xN
xM
xL
xK
xJ
xI
xH
xG
xF
xE
xD
xC
xB
xA
x@
x?
x>
x=
x<
x;
x:
x9
x8
x7
x6
x5
x4
$end
#5
1!
b0 T
b0 %
0S
0R
1Q
0P
0O
0N
0M
0L
0K
0J
0I
0H
0G
0F
0E
0D
0C
0B
0A
0@
0?
0>
0=
0<
0;
0:
09
08
07
06
05
04
0t
0s
0r
0q
0p
0o
0n
0m
0l
0k
0j
0i
0h
0g
0f
0e
0d
0c
0b
0a
0`
0_
0^
0]
0\
0[
0Z
0Y
0X
0W
0V
0U
b1000100000000110110011 u
b1000100000000110110011 &
17!
16!
05!
04!
13!
12!
01!
10!
1/!
0.!
0-!
0,!
0+!
0*!
0)!
0(!
0'!
1&!
0%!
0$!
0#!
1"!
0!!
0~
0}
0|
0{
0z
0y
0x
0w
0v
b0 =!
b10 9!
b10 >!
b100 8!
b0 <!
b11 :!
b110011 ;!
b110011 *
b11 '
b0 +
b100 (
b10 0
b10 )
b0 ,
1N!
1M!
0L!
0K!
0J!
0r"
0q"
0p"
0o"
0n"
0m"
0l"
0I!
1H!
0G!
0F!
0E!
0|!
1{!
0z!
0y!
0x!
0w!
0v!
0u!
0t!
0s!
0r!
0q!
0D!
0C!
1B!
0A!
0@!
0u"
0t"
0s"
0!"
0~!
0}!
1k"
1j"
0i"
0h"
1g"
1f"
0e"
b10 ""
b101 o!
b111 p!
1w"
b0 v"
b0 3
1#
b111 .
b101 -
b10 1
1?!
0b"
1a"
0`"
0_"
0^"
0]"
0\"
0["
0Z"
0Y"
0X"
0W"
0V"
0U"
0T"
0S"
0R"
0Q"
0P"
0O"
0N"
0M"
0L"
0K"
0J"
0I"
0H"
0G"
0F"
0E"
0D"
0C"
1>#
0=#
1<#
0;#
0:#
09#
08#
07#
06#
05#
04#
03#
02#
01#
00#
0/#
0.#
0-#
0,#
0+#
0*#
0)#
0(#
0'#
0&#
0%#
0$#
0##
0"#
0!#
0~"
0}"
1B"
1A"
1@"
0?"
0>"
0="
0<"
0;"
0:"
09"
08"
07"
06"
05"
04"
03"
02"
01"
00"
0/"
0."
0-"
0,"
0+"
0*"
0)"
0("
0'"
0&"
0%"
0$"
0#"
0|"
0{"
0z"
0y"
b111 d"
b111 /
1^#
1]#
1\#
0[#
0Z#
0Y#
0X#
0W#
0V#
0U#
0T#
0S#
0R#
0Q#
0P#
0O#
0N#
0M#
0L#
0K#
0J#
0I#
0H#
0G#
0F#
0E#
0D#
0C#
0B#
0A#
0@#
0?#
b1100 _#
b1100 2
0n!
0m!
1l!
1k!
0j!
0i!
0h!
0g!
0f!
0e!
0d!
0c!
0b!
0a!
0`!
0_!
0^!
0]!
0\!
0[!
0Z!
0Y!
0X!
0W!
0V!
0U!
0T!
0S!
0R!
0Q!
0P!
0O!
#10
0"
0!
#15
1!
b100 T
b100 %
0Q
1P
1r
b1100110000001100010011 u
b1100110000001100010011 &
02!
00!
1.!
1'!
1#!
b11 9!
b11 >!
b110 8!
b110 :!
b10011 ;!
b10011 *
b110 '
b110 (
b11 0
b11 )
0N!
1L!
1I!
1|!
1C!
0f"
1x"
b11 ""
b0 o!
b1100 p!
b1100 .
b0 -
b11 1
1$
1b"
0>#
0<#
0B"
0A"
1?"
1c"
b111 _#
b11 d"
b11 /
b111 2
1n!
1m!
0k!
0\#
b11 _#
b11 2
0l!
#20
0!
#25
1!
b1000 T
b1000 %
1Q
0r
1q
b100110000110000001100010011 u
b11 o!
b11 -
b100110000110000001100010011 &
0#!
0"!
1!!
1~
1{
b10 =!
b1100 9!
b1001100 >!
b1001100 0
b1100 )
b10 ,
1q"
0I!
0H!
1G!
1F!
0|!
0{!
1z!
1y!
1v!
1>#
1=#
b110 _#
b1001100 ""
b0 p!
b0 .
b1001100 1
b110 2
0n!
1l!
0b"
0a"
1`"
1_"
1\"
0@"
0?"
b1001100 d"
b1001100 /
0^#
0]#
1\#
1[#
1X#
b1001111 _#
b1001111 2
1n!
1k!
1h!
#30
0!
#35
1!
b1100 T
b1100 %
0Q
0P
1O
1r
b100111100110011001110010011 u
b1001111 o!
b1001111 -
b100111100110011001110010011 &
10!
1+!
1*!
1#!
1"!
b1111 9!
b1001111 >!
b11 <!
b111 :!
b111 '
b11 +
b1001111 0
b1111 )
1N!
1I!
1H!
1|!
1{!
1u"
1t"
1!"
1~!
1<#
1;#
18#
b10011011 _#
b100 v"
b1001111 ""
b1001111 1
b100 3
b10011011 2
0l!
1j!
0h!
1g!
1z"
1b"
1a"
b1001111 d"
b0 _#
b0 2
b1001111 /
0n!
0m!
0k!
0j!
0g!
1^#
1]#
#40
0!
#45
1!
b10000 T
b10000 %
1Q
0r
0q
1p
b10101100110011001110010011 u
b10101100110011001110010011 &
0!!
1|
0{
b1 =!
b1011 9!
b101011 >!
b101011 0
b1011 )
b1 ,
1r"
0q"
0G!
0z!
1w!
0v!
b101011 ""
b101011 1
0`"
1]"
0\"
b101011 d"
b101011 /
0\#
1Y#
0X#
#50
0!
#55
1!
b10100 T
b10100 %
0Q
1P
1r
b101000000110011001110010011 u
b101000000110011001110010011 &
0#!
0"!
0~
1}
0|
1{
b10 =!
b10000 9!
b1010000 >!
b1010000 0
b10000 )
b10 ,
0r"
1q"
0I!
0H!
0F!
1E!
0|!
0{!
0y!
1x!
0w!
1v!
b1010000 ""
b1010000 1
0b"
0a"
0_"
1^"
0]"
1\"
b1010000 d"
b1010000 /
0^#
0]#
0[#
1Z#
0Y#
1X#
b1 _#
b1 2
1n!
#60
0!
#65
1!
b11000 T
b11000 %
1Q
0r
1q
bx u
bx &
x7!
x6!
x5!
x4!
x3!
x2!
x1!
x0!
x/!
x.!
x-!
x,!
x+!
x*!
x)!
x(!
x'!
x&!
x%!
x$!
x#!
x"!
x!!
x~
x}
x|
x{
xz
xy
xx
xw
xv
bx =!
bx 9!
bx >!
bx 8!
bx <!
bx :!
bx ;!
bx *
bx '
bx +
bx (
bx 0
bx )
bx ,
xN!
xM!
xL!
xK!
xJ!
xr"
xq"
xp"
xo"
xn"
xm"
xl"
xI!
xH!
xG!
xF!
xE!
x|!
x{!
xz!
xy!
xx!
xw!
xv!
xu!
xt!
xs!
xr!
xq!
xD!
xC!
xB!
xA!
x@!
xu"
xt"
xs"
x!"
x~!
x}!
xk"
xj"
xi"
xh"
xg"
xf"
xe"
bx ""
bx o!
bx p!
0w"
0x"
0$
0#
bx .
bx -
bx 1
0?!
0c"
xb"
xa"
x`"
x_"
x^"
x]"
x\"
x["
xZ"
xY"
xX"
xW"
xV"
xU"
xT"
xS"
xR"
xQ"
xP"
xO"
xN"
xM"
xL"
xK"
xJ"
xI"
xH"
xG"
xF"
xE"
xD"
xC"
x>#
x=#
x<#
x;#
x:#
x9#
x8#
x7#
x6#
x5#
x4#
x3#
x2#
x1#
x0#
x/#
x.#
x-#
x,#
x+#
x*#
x)#
x(#
x'#
x&#
x%#
x$#
x##
x"#
x!#
x~"
x}"
xB"
xA"
x@"
x?"
x>"
x="
x<"
x;"
x:"
x9"
x8"
x7"
x6"
x5"
x4"
x3"
x2"
x1"
x0"
x/"
x."
x-"
x,"
x+"
x*"
x)"
x("
x'"
x&"
x%"
x$"
x#"
b0x _#
bx d"
bx /
b0x 2
xn!
x^#
x]#
x\#
x[#
xZ#
xY#
xX#
xW#
xV#
xU#
xT#
xS#
xR#
xQ#
xP#
xO#
xN#
xM#
xL#
xK#
xJ#
xI#
xH#
xG#
xF#
xE#
xD#
xC#
xB#
xA#
x@#
x?#
#70
0!
#75
1!
b11100 T
b11100 %
0Q
0P
0O
1N
1r
#80
0!
#85
1!
b100000 T
b100000 %
1Q
0r
0q
0p
1o
#90
0!
#95
1!
b100100 T
b100100 %
0Q
1P
1r
#100
0!
#105
1!
b101000 T
b101000 %
1Q
0r
1q
#110
0!
#115
1!
b101100 T
b101100 %
0Q
0P
1O
1r
#120
0!
#125
1!
b110000 T
b110000 %
1Q
0r
0q
1p
#130
0!
#135
1!
b110100 T
b110100 %
0Q
1P
1r
#140
0!
#145
1!
b111000 T
b111000 %
1Q
0r
1q
#150
0!
#155
1!
b111100 T
b111100 %
0Q
0P
0O
0N
1M
1r
#160
0!
#165
1!
b1000000 T
b1000000 %
1Q
0r
0q
0p
0o
1n
#170
0!
#175
1!
b1000100 T
b1000100 %
0Q
1P
1r
#180
0!
#185
1!
b1001000 T
b1001000 %
1Q
0r
1q
#190
0!
#195
1!
b1001100 T
b1001100 %
0Q
0P
1O
1r
#200
0!
#205
1!
b1010000 T
b1010000 %
1Q
0r
0q
1p
#210
0!
#215
1!
b1010100 T
b1010100 %
0Q
1P
1r
#220
0!
#225
1!
b1011000 T
b1011000 %
1Q
0r
1q
#230
0!
#235
1!
b1011100 T
b1011100 %
0Q
0P
0O
1N
1r
#240
0!
#245
1!
b1100000 T
b1100000 %
1Q
0r
0q
0p
1o
#250
0!
#255
1!
b1100100 T
b1100100 %
0Q
1P
1r
#260
0!
#265
1!
b1101000 T
b1101000 %
1Q
0r
1q
#270
0!
#275
1!
b1101100 T
b1101100 %
0Q
0P
1O
1r
#280
0!
#285
1!
b1110000 T
b1110000 %
1Q
0r
0q
1p
#290
0!
#295
1!
b1110100 T
b1110100 %
0Q
1P
1r
#300
0!
#305
1!
b1111000 T
b1111000 %
1Q
0r
1q
#310
0!
#315
1!
b1111100 T
b1111100 %
0Q
0P
0O
0N
0M
1L
1r
#320
0!
#325
1!
b10000000 T
b10000000 %
1Q
0r
0q
0p
0o
0n
1m
#330
0!
#335
1!
b10000100 T
b10000100 %
0Q
1P
1r
#340
0!
#345
1!
b10001000 T
b10001000 %
1Q
0r
1q
#350
0!
#355
1!
b10001100 T
b10001100 %
0Q
0P
1O
1r
#360
0!
#365
1!
b10010000 T
b10010000 %
1Q
0r
0q
1p
#370
0!
#375
1!
b10010100 T
b10010100 %
0Q
1P
1r
#380
0!
#385
1!
b10011000 T
b10011000 %
1Q
0r
1q
#390
0!
#395
1!
b10011100 T
b10011100 %
0Q
0P
0O
1N
1r
#400
0!
#405
1!
b10100000 T
b10100000 %
1Q
0r
0q
0p
1o
#410
0!
#415
1!
b10100100 T
b10100100 %
0Q
1P
1r
#420
0!
#425
1!
b10101000 T
b10101000 %
1Q
0r
1q
#430
0!
#435
1!
b10101100 T
b10101100 %
0Q
0P
1O
1r
#440
0!
#445
1!
b10110000 T
b10110000 %
1Q
0r
0q
1p
#450
0!
#455
1!
b10110100 T
b10110100 %
0Q
1P
1r
#460
0!
#465
1!
b10111000 T
b10111000 %
1Q
0r
1q
#470
0!
#475
1!
b10111100 T
b10111100 %
0Q
0P
0O
0N
1M
1r
#480
0!
#485
1!
b11000000 T
b11000000 %
1Q
0r
0q
0p
0o
1n
#490
0!
#495
1!
b11000100 T
b11000100 %
0Q
1P
1r
#500
0!
#505
1!
b11001000 T
b11001000 %
1Q
0r
1q
#510
0!
#515
1!
b11001100 T
b11001100 %
0Q
0P
1O
1r
#520
0!
#525
1!
b11010000 T
b11010000 %
1Q
0r
0q
1p
#530
0!
#535
1!
b11010100 T
b11010100 %
0Q
1P
1r
#540
0!
#545
1!
b11011000 T
b11011000 %
1Q
0r
1q
#550
0!
#555
1!
b11011100 T
b11011100 %
0Q
0P
0O
1N
1r
#560
0!
#565
1!
b11100000 T
b11100000 %
1Q
0r
0q
0p
1o
#570
0!
#575
1!
b11100100 T
b11100100 %
0Q
1P
1r
#580
0!
#585
1!
b11101000 T
b11101000 %
1Q
0r
1q
#590
0!
#595
1!
b11101100 T
b11101100 %
0Q
0P
1O
1r
#600
0!
#605
1!
b11110000 T
b11110000 %
1Q
0r
0q
1p
#610
0!
#615
1!
b11110100 T
b11110100 %
0Q
1P
1r
#620
0!
#625
1!
b11111000 T
b11111000 %
1Q
0r
1q
#630
0!
#635
1!
b11111100 T
b11111100 %
0Q
0P
0O
0N
0M
0L
1K
1r
#640
0!
#645
1!
b100000000 T
b100000000 %
1Q
0r
0q
0p
0o
0n
0m
1l
#650
0!
#655
1!
b100000100 T
b100000100 %
0Q
1P
1r
#660
0!
#665
1!
b100001000 T
b100001000 %
1Q
0r
1q
#670
0!
#675
1!
b100001100 T
b100001100 %
0Q
0P
1O
1r
#680
0!
#685
1!
b100010000 T
b100010000 %
1Q
0r
0q
1p
#690
0!
#695
1!
b100010100 T
b100010100 %
0Q
1P
1r
#700
0!
#705
1!
b100011000 T
b100011000 %
1Q
0r
1q
#710
0!
#715
1!
b100011100 T
b100011100 %
0Q
0P
0O
1N
1r
#720
0!
#725
1!
b100100000 T
b100100000 %
1Q
0r
0q
0p
1o
#730
0!
#735
1!
b100100100 T
b100100100 %
0Q
1P
1r
#740
0!
#745
1!
b100101000 T
b100101000 %
1Q
0r
1q
#750
0!
#755
1!
b100101100 T
b100101100 %
0Q
0P
1O
1r
#760
0!
#765
1!
b100110000 T
b100110000 %
1Q
0r
0q
1p
#770
0!
#775
1!
b100110100 T
b100110100 %
0Q
1P
1r
#780
0!
#785
1!
b100111000 T
b100111000 %
1Q
0r
1q
#790
0!
#795
1!
b100111100 T
b100111100 %
0Q
0P
0O
0N
1M
1r
#800
0!
#805
1!
b101000000 T
b101000000 %
1Q
0r
0q
0p
0o
1n
#810
0!
#815
1!
b101000100 T
b101000100 %
0Q
1P
1r
#820
0!
#825
1!
b101001000 T
b101001000 %
1Q
0r
1q
#830
0!
#835
1!
b101001100 T
b101001100 %
0Q
0P
1O
1r
#840
0!
#845
1!
b101010000 T
b101010000 %
1Q
0r
0q
1p
#850
0!
#855
1!
b101010100 T
b101010100 %
0Q
1P
1r
#860
0!
#865
1!
b101011000 T
b101011000 %
1Q
0r
1q
#870
0!
#875
1!
b101011100 T
b101011100 %
0Q
0P
0O
1N
1r
#880
0!
#885
1!
b101100000 T
b101100000 %
1Q
0r
0q
0p
1o
#890
0!
#895
1!
b101100100 T
b101100100 %
0Q
1P
1r
#900
0!
#905
1!
b101101000 T
b101101000 %
1Q
0r
1q
#910
0!
#915
1!
b101101100 T
b101101100 %
0Q
0P
1O
1r
